[
    {
        "fields": {
            "created": "2015-08-14T11:32:39.835Z",
            "name": "ahole"
        },
        "model": "training.profanity",
        "pk": 460
    },
    {
        "fields": {
            "created": "2015-08-14T11:32:39.849Z",
            "name": "anus"
        },
        "model": "training.profanity",
        "pk": 461
    },
    {
        "fields": {
            "created": "2015-08-14T11:32:39.857Z",
            "name": "ash0le"
        },
        "model": "training.profanity",
        "pk": 462
    },
    {
        "fields": {
            "created": "2015-08-14T11:32:39.864Z",
            "name": "ash0les"
        },
        "model": "training.profanity",
        "pk": 463
    },
    {
        "fields": {
            "created": "2015-08-14T11:32:39.868Z",
            "name": "asholes"
        },
        "model": "training.profanity",
        "pk": 464
    },
    {
        "fields": {
            "created": "2015-08-14T11:32:39.876Z",
            "name": "ass"
        },
        "model": "training.profanity",
        "pk": 465
    },
    {
        "fields": {
            "created": "2015-08-14T11:32:39.880Z",
            "name": "Ass Monkey"
        },
        "model": "training.profanity",
        "pk": 466
    },
    {
        "fields": {
            "created": "2015-08-14T11:32:39.883Z",
            "name": "Assface"
        },
        "model": "training.profanity",
        "pk": 467
    },
    {
        "fields": {
            "created": "2015-08-14T11:32:39.887Z",
            "name": "assh0le"
        },
        "model": "training.profanity",
        "pk": 468
    },
    {
        "fields": {
            "created": "2015-08-14T11:32:39.890Z",
            "name": "assh0lez"
        },
        "model": "training.profanity",
        "pk": 469
    },
    {
        "fields": {
            "created": "2015-08-14T11:32:39.892Z",
            "name": "asshole"
        },
        "model": "training.profanity",
        "pk": 470
    },
    {
        "fields": {
            "created": "2015-08-14T11:32:39.893Z",
            "name": "assholes"
        },
        "model": "training.profanity",
        "pk": 471
    },
    {
        "fields": {
            "created": "2015-08-14T11:32:39.895Z",
            "name": "assholz"
        },
        "model": "training.profanity",
        "pk": 472
    },
    {
        "fields": {
            "created": "2015-08-14T11:32:39.899Z",
            "name": "asswipe"
        },
        "model": "training.profanity",
        "pk": 473
    },
    {
        "fields": {
            "created": "2015-08-14T11:32:39.903Z",
            "name": "azzhole"
        },
        "model": "training.profanity",
        "pk": 474
    },
    {
        "fields": {
            "created": "2015-08-14T11:32:39.908Z",
            "name": "bassterds"
        },
        "model": "training.profanity",
        "pk": 475
    },
    {
        "fields": {
            "created": "2015-08-14T11:32:39.913Z",
            "name": "bastard"
        },
        "model": "training.profanity",
        "pk": 476
    },
    {
        "fields": {
            "created": "2015-08-14T11:32:39.917Z",
            "name": "bastards"
        },
        "model": "training.profanity",
        "pk": 477
    },
    {
        "fields": {
            "created": "2015-08-14T11:32:39.921Z",
            "name": "bastardz"
        },
        "model": "training.profanity",
        "pk": 478
    },
    {
        "fields": {
            "created": "2015-08-14T11:32:39.925Z",
            "name": "basterds"
        },
        "model": "training.profanity",
        "pk": 479
    },
    {
        "fields": {
            "created": "2015-08-14T11:32:39.929Z",
            "name": "basterdz"
        },
        "model": "training.profanity",
        "pk": 480
    },
    {
        "fields": {
            "created": "2015-08-14T11:32:39.934Z",
            "name": "Biatch"
        },
        "model": "training.profanity",
        "pk": 481
    },
    {
        "fields": {
            "created": "2015-08-14T11:32:39.937Z",
            "name": "bitch"
        },
        "model": "training.profanity",
        "pk": 482
    },
    {
        "fields": {
            "created": "2015-08-14T11:32:39.942Z",
            "name": "bitches"
        },
        "model": "training.profanity",
        "pk": 483
    },
    {
        "fields": {
            "created": "2015-08-14T11:32:39.946Z",
            "name": "Blow Job"
        },
        "model": "training.profanity",
        "pk": 484
    },
    {
        "fields": {
            "created": "2015-08-14T11:32:39.951Z",
            "name": "boffing"
        },
        "model": "training.profanity",
        "pk": 485
    },
    {
        "fields": {
            "created": "2015-08-14T11:32:39.955Z",
            "name": "butthole"
        },
        "model": "training.profanity",
        "pk": 486
    },
    {
        "fields": {
            "created": "2015-08-14T11:32:39.956Z",
            "name": "buttwipe"
        },
        "model": "training.profanity",
        "pk": 487
    },
    {
        "fields": {
            "created": "2015-08-14T11:32:39.957Z",
            "name": "c0ck"
        },
        "model": "training.profanity",
        "pk": 488
    },
    {
        "fields": {
            "created": "2015-08-14T11:32:39.961Z",
            "name": "c0cks"
        },
        "model": "training.profanity",
        "pk": 489
    },
    {
        "fields": {
            "created": "2015-08-14T11:32:39.965Z",
            "name": "c0k"
        },
        "model": "training.profanity",
        "pk": 490
    },
    {
        "fields": {
            "created": "2015-08-14T11:32:39.968Z",
            "name": "Carpet Muncher"
        },
        "model": "training.profanity",
        "pk": 491
    },
    {
        "fields": {
            "created": "2015-08-14T11:32:39.972Z",
            "name": "cawk"
        },
        "model": "training.profanity",
        "pk": 492
    },
    {
        "fields": {
            "created": "2015-08-14T11:32:39.976Z",
            "name": "cawks"
        },
        "model": "training.profanity",
        "pk": 493
    },
    {
        "fields": {
            "created": "2015-08-14T11:32:39.980Z",
            "name": "Clit"
        },
        "model": "training.profanity",
        "pk": 494
    },
    {
        "fields": {
            "created": "2015-08-14T11:32:39.984Z",
            "name": "cnts"
        },
        "model": "training.profanity",
        "pk": 495
    },
    {
        "fields": {
            "created": "2015-08-14T11:32:39.988Z",
            "name": "cntz"
        },
        "model": "training.profanity",
        "pk": 496
    },
    {
        "fields": {
            "created": "2015-08-14T11:32:39.992Z",
            "name": "cock"
        },
        "model": "training.profanity",
        "pk": 497
    },
    {
        "fields": {
            "created": "2015-08-14T11:32:39.996Z",
            "name": "cockhead"
        },
        "model": "training.profanity",
        "pk": 498
    },
    {
        "fields": {
            "created": "2015-08-14T11:32:40.003Z",
            "name": "cock-head"
        },
        "model": "training.profanity",
        "pk": 499
    },
    {
        "fields": {
            "created": "2015-08-14T11:32:40.007Z",
            "name": "cocks"
        },
        "model": "training.profanity",
        "pk": 500
    },
    {
        "fields": {
            "created": "2015-08-14T11:32:40.011Z",
            "name": "CockSucker"
        },
        "model": "training.profanity",
        "pk": 501
    },
    {
        "fields": {
            "created": "2015-08-14T11:32:40.014Z",
            "name": "cock-sucker"
        },
        "model": "training.profanity",
        "pk": 502
    },
    {
        "fields": {
            "created": "2015-08-14T11:32:40.018Z",
            "name": "crap"
        },
        "model": "training.profanity",
        "pk": 503
    },
    {
        "fields": {
            "created": "2015-08-14T11:32:40.021Z",
            "name": "cum"
        },
        "model": "training.profanity",
        "pk": 504
    },
    {
        "fields": {
            "created": "2015-08-14T11:32:40.025Z",
            "name": "cunt"
        },
        "model": "training.profanity",
        "pk": 505
    },
    {
        "fields": {
            "created": "2015-08-14T11:32:40.029Z",
            "name": "cunts"
        },
        "model": "training.profanity",
        "pk": 506
    },
    {
        "fields": {
            "created": "2015-08-14T11:32:40.033Z",
            "name": "cuntz"
        },
        "model": "training.profanity",
        "pk": 507
    },
    {
        "fields": {
            "created": "2015-08-14T11:32:40.037Z",
            "name": "dick"
        },
        "model": "training.profanity",
        "pk": 508
    },
    {
        "fields": {
            "created": "2015-08-14T11:32:40.040Z",
            "name": "dild0"
        },
        "model": "training.profanity",
        "pk": 509
    },
    {
        "fields": {
            "created": "2015-08-14T11:32:40.045Z",
            "name": "dild0s"
        },
        "model": "training.profanity",
        "pk": 510
    },
    {
        "fields": {
            "created": "2015-08-14T11:32:40.048Z",
            "name": "dildo"
        },
        "model": "training.profanity",
        "pk": 511
    },
    {
        "fields": {
            "created": "2015-08-14T11:32:40.052Z",
            "name": "dildos"
        },
        "model": "training.profanity",
        "pk": 512
    },
    {
        "fields": {
            "created": "2015-08-14T11:32:40.056Z",
            "name": "dilld0"
        },
        "model": "training.profanity",
        "pk": 513
    },
    {
        "fields": {
            "created": "2015-08-14T11:32:40.061Z",
            "name": "dilld0s"
        },
        "model": "training.profanity",
        "pk": 514
    },
    {
        "fields": {
            "created": "2015-08-14T11:32:40.065Z",
            "name": "dominatricks"
        },
        "model": "training.profanity",
        "pk": 515
    },
    {
        "fields": {
            "created": "2015-08-14T11:32:40.069Z",
            "name": "dominatrics"
        },
        "model": "training.profanity",
        "pk": 516
    },
    {
        "fields": {
            "created": "2015-08-14T11:32:40.075Z",
            "name": "dominatrix"
        },
        "model": "training.profanity",
        "pk": 517
    },
    {
        "fields": {
            "created": "2015-08-14T11:32:40.082Z",
            "name": "dyke"
        },
        "model": "training.profanity",
        "pk": 518
    },
    {
        "fields": {
            "created": "2015-08-14T11:32:40.086Z",
            "name": "enema"
        },
        "model": "training.profanity",
        "pk": 519
    },
    {
        "fields": {
            "created": "2015-08-14T11:32:40.089Z",
            "name": "f u c k"
        },
        "model": "training.profanity",
        "pk": 520
    },
    {
        "fields": {
            "created": "2015-08-14T11:32:40.093Z",
            "name": "f u c k e r"
        },
        "model": "training.profanity",
        "pk": 521
    },
    {
        "fields": {
            "created": "2015-08-14T11:32:40.097Z",
            "name": "fag"
        },
        "model": "training.profanity",
        "pk": 522
    },
    {
        "fields": {
            "created": "2015-08-14T11:32:40.101Z",
            "name": "fag1t"
        },
        "model": "training.profanity",
        "pk": 523
    },
    {
        "fields": {
            "created": "2015-08-14T11:32:40.105Z",
            "name": "faget"
        },
        "model": "training.profanity",
        "pk": 524
    },
    {
        "fields": {
            "created": "2015-08-14T11:32:40.108Z",
            "name": "fagg1t"
        },
        "model": "training.profanity",
        "pk": 525
    },
    {
        "fields": {
            "created": "2015-08-14T11:32:40.112Z",
            "name": "faggit"
        },
        "model": "training.profanity",
        "pk": 526
    },
    {
        "fields": {
            "created": "2015-08-14T11:32:40.116Z",
            "name": "faggot"
        },
        "model": "training.profanity",
        "pk": 527
    },
    {
        "fields": {
            "created": "2015-08-14T11:32:40.121Z",
            "name": "fagit"
        },
        "model": "training.profanity",
        "pk": 528
    },
    {
        "fields": {
            "created": "2015-08-14T11:32:40.125Z",
            "name": "fags"
        },
        "model": "training.profanity",
        "pk": 529
    },
    {
        "fields": {
            "created": "2015-08-14T11:32:40.128Z",
            "name": "fagz"
        },
        "model": "training.profanity",
        "pk": 530
    },
    {
        "fields": {
            "created": "2015-08-14T11:32:40.132Z",
            "name": "faig"
        },
        "model": "training.profanity",
        "pk": 531
    },
    {
        "fields": {
            "created": "2015-08-14T11:32:40.136Z",
            "name": "faigs"
        },
        "model": "training.profanity",
        "pk": 532
    },
    {
        "fields": {
            "created": "2015-08-14T11:32:40.140Z",
            "name": "fart"
        },
        "model": "training.profanity",
        "pk": 533
    },
    {
        "fields": {
            "created": "2015-08-14T11:32:40.145Z",
            "name": "flipping the bird"
        },
        "model": "training.profanity",
        "pk": 534
    },
    {
        "fields": {
            "created": "2015-08-14T11:32:40.149Z",
            "name": "fuck"
        },
        "model": "training.profanity",
        "pk": 535
    },
    {
        "fields": {
            "created": "2015-08-14T11:32:40.153Z",
            "name": "fucker"
        },
        "model": "training.profanity",
        "pk": 536
    },
    {
        "fields": {
            "created": "2015-08-14T11:32:40.158Z",
            "name": "fuckin"
        },
        "model": "training.profanity",
        "pk": 537
    },
    {
        "fields": {
            "created": "2015-08-14T11:32:40.162Z",
            "name": "fucking"
        },
        "model": "training.profanity",
        "pk": 538
    },
    {
        "fields": {
            "created": "2015-08-14T11:32:40.166Z",
            "name": "fucks"
        },
        "model": "training.profanity",
        "pk": 539
    },
    {
        "fields": {
            "created": "2015-08-14T11:32:40.170Z",
            "name": "Fudge Packer"
        },
        "model": "training.profanity",
        "pk": 540
    },
    {
        "fields": {
            "created": "2015-08-14T11:32:40.174Z",
            "name": "fuk"
        },
        "model": "training.profanity",
        "pk": 541
    },
    {
        "fields": {
            "created": "2015-08-14T11:32:40.178Z",
            "name": "Fukah"
        },
        "model": "training.profanity",
        "pk": 542
    },
    {
        "fields": {
            "created": "2015-08-14T11:32:40.182Z",
            "name": "Fuken"
        },
        "model": "training.profanity",
        "pk": 543
    },
    {
        "fields": {
            "created": "2015-08-14T11:32:40.187Z",
            "name": "fuker"
        },
        "model": "training.profanity",
        "pk": 544
    },
    {
        "fields": {
            "created": "2015-08-14T11:32:40.189Z",
            "name": "Fukin"
        },
        "model": "training.profanity",
        "pk": 545
    },
    {
        "fields": {
            "created": "2015-08-14T11:32:40.193Z",
            "name": "Fukk"
        },
        "model": "training.profanity",
        "pk": 546
    },
    {
        "fields": {
            "created": "2015-08-14T11:32:40.198Z",
            "name": "Fukkah"
        },
        "model": "training.profanity",
        "pk": 547
    },
    {
        "fields": {
            "created": "2015-08-14T11:32:40.202Z",
            "name": "Fukken"
        },
        "model": "training.profanity",
        "pk": 548
    },
    {
        "fields": {
            "created": "2015-08-14T11:32:40.206Z",
            "name": "Fukker"
        },
        "model": "training.profanity",
        "pk": 549
    },
    {
        "fields": {
            "created": "2015-08-14T11:32:40.211Z",
            "name": "Fukkin"
        },
        "model": "training.profanity",
        "pk": 550
    },
    {
        "fields": {
            "created": "2015-08-14T11:32:40.215Z",
            "name": "g00k"
        },
        "model": "training.profanity",
        "pk": 551
    },
    {
        "fields": {
            "created": "2015-08-14T11:32:40.219Z",
            "name": "gay"
        },
        "model": "training.profanity",
        "pk": 552
    },
    {
        "fields": {
            "created": "2015-08-14T11:32:40.225Z",
            "name": "gayboy"
        },
        "model": "training.profanity",
        "pk": 553
    },
    {
        "fields": {
            "created": "2015-08-14T11:32:40.229Z",
            "name": "gaygirl"
        },
        "model": "training.profanity",
        "pk": 554
    },
    {
        "fields": {
            "created": "2015-08-14T11:32:40.233Z",
            "name": "gays"
        },
        "model": "training.profanity",
        "pk": 555
    },
    {
        "fields": {
            "created": "2015-08-14T11:32:40.236Z",
            "name": "gayz"
        },
        "model": "training.profanity",
        "pk": 556
    },
    {
        "fields": {
            "created": "2015-08-14T11:32:40.240Z",
            "name": "God-damned"
        },
        "model": "training.profanity",
        "pk": 557
    },
    {
        "fields": {
            "created": "2015-08-14T11:32:40.244Z",
            "name": "h00r"
        },
        "model": "training.profanity",
        "pk": 558
    },
    {
        "fields": {
            "created": "2015-08-14T11:32:40.248Z",
            "name": "h0ar"
        },
        "model": "training.profanity",
        "pk": 559
    },
    {
        "fields": {
            "created": "2015-08-14T11:32:40.252Z",
            "name": "h0re"
        },
        "model": "training.profanity",
        "pk": 560
    },
    {
        "fields": {
            "created": "2015-08-14T11:32:40.256Z",
            "name": "hells"
        },
        "model": "training.profanity",
        "pk": 561
    },
    {
        "fields": {
            "created": "2015-08-14T11:32:40.260Z",
            "name": "hoar"
        },
        "model": "training.profanity",
        "pk": 562
    },
    {
        "fields": {
            "created": "2015-08-14T11:32:40.263Z",
            "name": "hoor"
        },
        "model": "training.profanity",
        "pk": 563
    },
    {
        "fields": {
            "created": "2015-08-14T11:32:40.268Z",
            "name": "hoore"
        },
        "model": "training.profanity",
        "pk": 564
    },
    {
        "fields": {
            "created": "2015-08-14T11:32:40.271Z",
            "name": "jackoff"
        },
        "model": "training.profanity",
        "pk": 565
    },
    {
        "fields": {
            "created": "2015-08-14T11:32:40.275Z",
            "name": "jap"
        },
        "model": "training.profanity",
        "pk": 566
    },
    {
        "fields": {
            "created": "2015-08-14T11:32:40.279Z",
            "name": "japs"
        },
        "model": "training.profanity",
        "pk": 567
    },
    {
        "fields": {
            "created": "2015-08-14T11:32:40.283Z",
            "name": "jerk-off"
        },
        "model": "training.profanity",
        "pk": 568
    },
    {
        "fields": {
            "created": "2015-08-14T11:32:40.287Z",
            "name": "jisim"
        },
        "model": "training.profanity",
        "pk": 569
    },
    {
        "fields": {
            "created": "2015-08-14T11:32:40.291Z",
            "name": "jiss"
        },
        "model": "training.profanity",
        "pk": 570
    },
    {
        "fields": {
            "created": "2015-08-14T11:32:40.295Z",
            "name": "jizm"
        },
        "model": "training.profanity",
        "pk": 571
    },
    {
        "fields": {
            "created": "2015-08-14T11:32:40.298Z",
            "name": "jizz"
        },
        "model": "training.profanity",
        "pk": 572
    },
    {
        "fields": {
            "created": "2015-08-14T11:32:40.303Z",
            "name": "knob"
        },
        "model": "training.profanity",
        "pk": 573
    },
    {
        "fields": {
            "created": "2015-08-14T11:32:40.306Z",
            "name": "knobs"
        },
        "model": "training.profanity",
        "pk": 574
    },
    {
        "fields": {
            "created": "2015-08-14T11:32:40.310Z",
            "name": "knobz"
        },
        "model": "training.profanity",
        "pk": 575
    },
    {
        "fields": {
            "created": "2015-08-14T11:32:40.314Z",
            "name": "kunt"
        },
        "model": "training.profanity",
        "pk": 576
    },
    {
        "fields": {
            "created": "2015-08-14T11:32:40.316Z",
            "name": "kunts"
        },
        "model": "training.profanity",
        "pk": 577
    },
    {
        "fields": {
            "created": "2015-08-14T11:32:40.320Z",
            "name": "kuntz"
        },
        "model": "training.profanity",
        "pk": 578
    },
    {
        "fields": {
            "created": "2015-08-14T11:32:40.322Z",
            "name": "Lesbian"
        },
        "model": "training.profanity",
        "pk": 579
    },
    {
        "fields": {
            "created": "2015-08-14T11:32:40.326Z",
            "name": "Lezzian"
        },
        "model": "training.profanity",
        "pk": 580
    },
    {
        "fields": {
            "created": "2015-08-14T11:32:40.330Z",
            "name": "Lipshits"
        },
        "model": "training.profanity",
        "pk": 581
    },
    {
        "fields": {
            "created": "2015-08-14T11:32:40.334Z",
            "name": "Lipshitz"
        },
        "model": "training.profanity",
        "pk": 582
    },
    {
        "fields": {
            "created": "2015-08-14T11:32:40.337Z",
            "name": "masochist"
        },
        "model": "training.profanity",
        "pk": 583
    },
    {
        "fields": {
            "created": "2015-08-14T11:32:40.341Z",
            "name": "masokist"
        },
        "model": "training.profanity",
        "pk": 584
    },
    {
        "fields": {
            "created": "2015-08-14T11:32:40.345Z",
            "name": "massterbait"
        },
        "model": "training.profanity",
        "pk": 585
    },
    {
        "fields": {
            "created": "2015-08-14T11:32:40.349Z",
            "name": "masstrbait"
        },
        "model": "training.profanity",
        "pk": 586
    },
    {
        "fields": {
            "created": "2015-08-14T11:32:40.352Z",
            "name": "masstrbate"
        },
        "model": "training.profanity",
        "pk": 587
    },
    {
        "fields": {
            "created": "2015-08-14T11:32:40.356Z",
            "name": "masterbaiter"
        },
        "model": "training.profanity",
        "pk": 588
    },
    {
        "fields": {
            "created": "2015-08-14T11:32:40.360Z",
            "name": "masterbate"
        },
        "model": "training.profanity",
        "pk": 589
    },
    {
        "fields": {
            "created": "2015-08-14T11:32:40.364Z",
            "name": "masterbates"
        },
        "model": "training.profanity",
        "pk": 590
    },
    {
        "fields": {
            "created": "2015-08-14T11:32:40.367Z",
            "name": "Motha Fucker"
        },
        "model": "training.profanity",
        "pk": 591
    },
    {
        "fields": {
            "created": "2015-08-14T11:32:40.371Z",
            "name": "Motha Fuker"
        },
        "model": "training.profanity",
        "pk": 592
    },
    {
        "fields": {
            "created": "2015-08-14T11:32:40.374Z",
            "name": "Motha Fukkah"
        },
        "model": "training.profanity",
        "pk": 593
    },
    {
        "fields": {
            "created": "2015-08-14T11:32:40.378Z",
            "name": "Motha Fukker"
        },
        "model": "training.profanity",
        "pk": 594
    },
    {
        "fields": {
            "created": "2015-08-14T11:32:40.382Z",
            "name": "Mother Fucker"
        },
        "model": "training.profanity",
        "pk": 595
    },
    {
        "fields": {
            "created": "2015-08-14T11:32:40.387Z",
            "name": "Mother Fukah"
        },
        "model": "training.profanity",
        "pk": 596
    },
    {
        "fields": {
            "created": "2015-08-14T11:32:40.391Z",
            "name": "Mother Fuker"
        },
        "model": "training.profanity",
        "pk": 597
    },
    {
        "fields": {
            "created": "2015-08-14T11:32:40.396Z",
            "name": "Mother Fukkah"
        },
        "model": "training.profanity",
        "pk": 598
    },
    {
        "fields": {
            "created": "2015-08-14T11:32:40.400Z",
            "name": "Mother Fukker"
        },
        "model": "training.profanity",
        "pk": 599
    },
    {
        "fields": {
            "created": "2015-08-14T11:32:40.404Z",
            "name": "mother-fucker"
        },
        "model": "training.profanity",
        "pk": 600
    },
    {
        "fields": {
            "created": "2015-08-14T11:32:40.409Z",
            "name": "Mutha Fucker"
        },
        "model": "training.profanity",
        "pk": 601
    },
    {
        "fields": {
            "created": "2015-08-14T11:32:40.413Z",
            "name": "Mutha Fukah"
        },
        "model": "training.profanity",
        "pk": 602
    },
    {
        "fields": {
            "created": "2015-08-14T11:32:40.417Z",
            "name": "Mutha Fuker"
        },
        "model": "training.profanity",
        "pk": 603
    },
    {
        "fields": {
            "created": "2015-08-14T11:32:40.422Z",
            "name": "Mutha Fukkah"
        },
        "model": "training.profanity",
        "pk": 604
    },
    {
        "fields": {
            "created": "2015-08-14T11:32:40.425Z",
            "name": "Mutha Fukker"
        },
        "model": "training.profanity",
        "pk": 605
    },
    {
        "fields": {
            "created": "2015-08-14T11:32:40.429Z",
            "name": "n1gr"
        },
        "model": "training.profanity",
        "pk": 606
    },
    {
        "fields": {
            "created": "2015-08-14T11:32:40.433Z",
            "name": "nastt"
        },
        "model": "training.profanity",
        "pk": 607
    },
    {
        "fields": {
            "created": "2015-08-14T11:32:40.437Z",
            "name": "nigger;"
        },
        "model": "training.profanity",
        "pk": 608
    },
    {
        "fields": {
            "created": "2015-08-14T11:32:40.445Z",
            "name": "nigur;"
        },
        "model": "training.profanity",
        "pk": 609
    },
    {
        "fields": {
            "created": "2015-08-14T11:32:40.449Z",
            "name": "niiger;"
        },
        "model": "training.profanity",
        "pk": 610
    },
    {
        "fields": {
            "created": "2015-08-14T11:32:40.454Z",
            "name": "niigr;"
        },
        "model": "training.profanity",
        "pk": 611
    },
    {
        "fields": {
            "created": "2015-08-14T11:32:40.458Z",
            "name": "orafis"
        },
        "model": "training.profanity",
        "pk": 612
    },
    {
        "fields": {
            "created": "2015-08-14T11:32:40.462Z",
            "name": "orgasim;"
        },
        "model": "training.profanity",
        "pk": 613
    },
    {
        "fields": {
            "created": "2015-08-14T11:32:40.466Z",
            "name": "orgasm"
        },
        "model": "training.profanity",
        "pk": 614
    },
    {
        "fields": {
            "created": "2015-08-14T11:32:40.470Z",
            "name": "orgasum"
        },
        "model": "training.profanity",
        "pk": 615
    },
    {
        "fields": {
            "created": "2015-08-14T11:32:40.474Z",
            "name": "oriface"
        },
        "model": "training.profanity",
        "pk": 616
    },
    {
        "fields": {
            "created": "2015-08-14T11:32:40.477Z",
            "name": "orifice"
        },
        "model": "training.profanity",
        "pk": 617
    },
    {
        "fields": {
            "created": "2015-08-14T11:32:40.481Z",
            "name": "orifiss"
        },
        "model": "training.profanity",
        "pk": 618
    },
    {
        "fields": {
            "created": "2015-08-14T11:32:40.488Z",
            "name": "packi"
        },
        "model": "training.profanity",
        "pk": 619
    },
    {
        "fields": {
            "created": "2015-08-14T11:32:40.491Z",
            "name": "packie"
        },
        "model": "training.profanity",
        "pk": 620
    },
    {
        "fields": {
            "created": "2015-08-14T11:32:40.495Z",
            "name": "packy"
        },
        "model": "training.profanity",
        "pk": 621
    },
    {
        "fields": {
            "created": "2015-08-14T11:32:40.499Z",
            "name": "paki"
        },
        "model": "training.profanity",
        "pk": 622
    },
    {
        "fields": {
            "created": "2015-08-14T11:32:40.503Z",
            "name": "pakie"
        },
        "model": "training.profanity",
        "pk": 623
    },
    {
        "fields": {
            "created": "2015-08-14T11:32:40.507Z",
            "name": "paky"
        },
        "model": "training.profanity",
        "pk": 624
    },
    {
        "fields": {
            "created": "2015-08-14T11:32:40.511Z",
            "name": "pecker"
        },
        "model": "training.profanity",
        "pk": 625
    },
    {
        "fields": {
            "created": "2015-08-14T11:32:40.514Z",
            "name": "peeenus"
        },
        "model": "training.profanity",
        "pk": 626
    },
    {
        "fields": {
            "created": "2015-08-14T11:32:40.518Z",
            "name": "peeenusss"
        },
        "model": "training.profanity",
        "pk": 627
    },
    {
        "fields": {
            "created": "2015-08-14T11:32:40.522Z",
            "name": "peenus"
        },
        "model": "training.profanity",
        "pk": 628
    },
    {
        "fields": {
            "created": "2015-08-14T11:32:40.526Z",
            "name": "peinus"
        },
        "model": "training.profanity",
        "pk": 629
    },
    {
        "fields": {
            "created": "2015-08-14T11:32:40.531Z",
            "name": "pen1s"
        },
        "model": "training.profanity",
        "pk": 630
    },
    {
        "fields": {
            "created": "2015-08-14T11:32:40.534Z",
            "name": "penas"
        },
        "model": "training.profanity",
        "pk": 631
    },
    {
        "fields": {
            "created": "2015-08-14T11:32:40.538Z",
            "name": "penis"
        },
        "model": "training.profanity",
        "pk": 632
    },
    {
        "fields": {
            "created": "2015-08-14T11:32:40.542Z",
            "name": "penis-breath"
        },
        "model": "training.profanity",
        "pk": 633
    },
    {
        "fields": {
            "created": "2015-08-14T11:32:40.545Z",
            "name": "penus"
        },
        "model": "training.profanity",
        "pk": 634
    },
    {
        "fields": {
            "created": "2015-08-14T11:32:40.550Z",
            "name": "penuus"
        },
        "model": "training.profanity",
        "pk": 635
    },
    {
        "fields": {
            "created": "2015-08-14T11:32:40.554Z",
            "name": "Phuc"
        },
        "model": "training.profanity",
        "pk": 636
    },
    {
        "fields": {
            "created": "2015-08-14T11:32:40.558Z",
            "name": "Phuck"
        },
        "model": "training.profanity",
        "pk": 637
    },
    {
        "fields": {
            "created": "2015-08-14T11:32:40.561Z",
            "name": "Phuk"
        },
        "model": "training.profanity",
        "pk": 638
    },
    {
        "fields": {
            "created": "2015-08-14T11:32:40.565Z",
            "name": "Phuker"
        },
        "model": "training.profanity",
        "pk": 639
    },
    {
        "fields": {
            "created": "2015-08-14T11:32:40.570Z",
            "name": "Phukker"
        },
        "model": "training.profanity",
        "pk": 640
    },
    {
        "fields": {
            "created": "2015-08-14T11:32:40.574Z",
            "name": "polac"
        },
        "model": "training.profanity",
        "pk": 641
    },
    {
        "fields": {
            "created": "2015-08-14T11:32:40.579Z",
            "name": "polack"
        },
        "model": "training.profanity",
        "pk": 642
    },
    {
        "fields": {
            "created": "2015-08-14T11:32:40.583Z",
            "name": "polak"
        },
        "model": "training.profanity",
        "pk": 643
    },
    {
        "fields": {
            "created": "2015-08-14T11:32:40.587Z",
            "name": "Poonani"
        },
        "model": "training.profanity",
        "pk": 644
    },
    {
        "fields": {
            "created": "2015-08-14T11:32:40.591Z",
            "name": "pr1c"
        },
        "model": "training.profanity",
        "pk": 645
    },
    {
        "fields": {
            "created": "2015-08-14T11:32:40.595Z",
            "name": "pr1ck"
        },
        "model": "training.profanity",
        "pk": 646
    },
    {
        "fields": {
            "created": "2015-08-14T11:32:40.598Z",
            "name": "pr1k"
        },
        "model": "training.profanity",
        "pk": 647
    },
    {
        "fields": {
            "created": "2015-08-14T11:32:40.602Z",
            "name": "pusse"
        },
        "model": "training.profanity",
        "pk": 648
    },
    {
        "fields": {
            "created": "2015-08-14T11:32:40.606Z",
            "name": "pussee"
        },
        "model": "training.profanity",
        "pk": 649
    },
    {
        "fields": {
            "created": "2015-08-14T11:32:40.610Z",
            "name": "pussy"
        },
        "model": "training.profanity",
        "pk": 650
    },
    {
        "fields": {
            "created": "2015-08-14T11:32:40.614Z",
            "name": "puuke"
        },
        "model": "training.profanity",
        "pk": 651
    },
    {
        "fields": {
            "created": "2015-08-14T11:32:40.618Z",
            "name": "puuker"
        },
        "model": "training.profanity",
        "pk": 652
    },
    {
        "fields": {
            "created": "2015-08-14T11:32:40.621Z",
            "name": "queer"
        },
        "model": "training.profanity",
        "pk": 653
    },
    {
        "fields": {
            "created": "2015-08-14T11:32:40.625Z",
            "name": "queers"
        },
        "model": "training.profanity",
        "pk": 654
    },
    {
        "fields": {
            "created": "2015-08-14T11:32:40.629Z",
            "name": "queerz"
        },
        "model": "training.profanity",
        "pk": 655
    },
    {
        "fields": {
            "created": "2015-08-14T11:32:40.634Z",
            "name": "qweers"
        },
        "model": "training.profanity",
        "pk": 656
    },
    {
        "fields": {
            "created": "2015-08-14T11:32:40.638Z",
            "name": "qweerz"
        },
        "model": "training.profanity",
        "pk": 657
    },
    {
        "fields": {
            "created": "2015-08-14T11:32:40.642Z",
            "name": "qweir"
        },
        "model": "training.profanity",
        "pk": 658
    },
    {
        "fields": {
            "created": "2015-08-14T11:32:40.646Z",
            "name": "recktum"
        },
        "model": "training.profanity",
        "pk": 659
    },
    {
        "fields": {
            "created": "2015-08-14T11:32:40.650Z",
            "name": "rectum"
        },
        "model": "training.profanity",
        "pk": 660
    },
    {
        "fields": {
            "created": "2015-08-14T11:32:40.652Z",
            "name": "retard"
        },
        "model": "training.profanity",
        "pk": 661
    },
    {
        "fields": {
            "created": "2015-08-14T11:32:40.653Z",
            "name": "sadist"
        },
        "model": "training.profanity",
        "pk": 662
    },
    {
        "fields": {
            "created": "2015-08-14T11:32:40.654Z",
            "name": "scank"
        },
        "model": "training.profanity",
        "pk": 663
    },
    {
        "fields": {
            "created": "2015-08-14T11:32:40.656Z",
            "name": "schlong"
        },
        "model": "training.profanity",
        "pk": 664
    },
    {
        "fields": {
            "created": "2015-08-14T11:32:40.657Z",
            "name": "screwing"
        },
        "model": "training.profanity",
        "pk": 665
    },
    {
        "fields": {
            "created": "2015-08-14T11:32:40.659Z",
            "name": "semen"
        },
        "model": "training.profanity",
        "pk": 666
    },
    {
        "fields": {
            "created": "2015-08-14T11:32:40.662Z",
            "name": "sex"
        },
        "model": "training.profanity",
        "pk": 667
    },
    {
        "fields": {
            "created": "2015-08-14T11:32:40.667Z",
            "name": "sexy"
        },
        "model": "training.profanity",
        "pk": 668
    },
    {
        "fields": {
            "created": "2015-08-14T11:32:40.671Z",
            "name": "Sh!t"
        },
        "model": "training.profanity",
        "pk": 669
    },
    {
        "fields": {
            "created": "2015-08-14T11:32:40.676Z",
            "name": "sh1t"
        },
        "model": "training.profanity",
        "pk": 670
    },
    {
        "fields": {
            "created": "2015-08-14T11:32:40.681Z",
            "name": "sh1ter"
        },
        "model": "training.profanity",
        "pk": 671
    },
    {
        "fields": {
            "created": "2015-08-14T11:32:40.685Z",
            "name": "sh1ts"
        },
        "model": "training.profanity",
        "pk": 672
    },
    {
        "fields": {
            "created": "2015-08-14T11:32:40.689Z",
            "name": "sh1tter"
        },
        "model": "training.profanity",
        "pk": 673
    },
    {
        "fields": {
            "created": "2015-08-14T11:32:40.694Z",
            "name": "sh1tz"
        },
        "model": "training.profanity",
        "pk": 674
    },
    {
        "fields": {
            "created": "2015-08-14T11:32:40.698Z",
            "name": "shit"
        },
        "model": "training.profanity",
        "pk": 675
    },
    {
        "fields": {
            "created": "2015-08-14T11:32:40.702Z",
            "name": "shits"
        },
        "model": "training.profanity",
        "pk": 676
    },
    {
        "fields": {
            "created": "2015-08-14T11:32:40.706Z",
            "name": "shitter"
        },
        "model": "training.profanity",
        "pk": 677
    },
    {
        "fields": {
            "created": "2015-08-14T11:32:40.710Z",
            "name": "Shitty"
        },
        "model": "training.profanity",
        "pk": 678
    },
    {
        "fields": {
            "created": "2015-08-14T11:32:40.714Z",
            "name": "Shity"
        },
        "model": "training.profanity",
        "pk": 679
    },
    {
        "fields": {
            "created": "2015-08-14T11:32:40.717Z",
            "name": "shitz"
        },
        "model": "training.profanity",
        "pk": 680
    },
    {
        "fields": {
            "created": "2015-08-14T11:32:40.721Z",
            "name": "Shyt"
        },
        "model": "training.profanity",
        "pk": 681
    },
    {
        "fields": {
            "created": "2015-08-14T11:32:40.725Z",
            "name": "Shyte"
        },
        "model": "training.profanity",
        "pk": 682
    },
    {
        "fields": {
            "created": "2015-08-14T11:32:40.729Z",
            "name": "Shytty"
        },
        "model": "training.profanity",
        "pk": 683
    },
    {
        "fields": {
            "created": "2015-08-14T11:32:40.733Z",
            "name": "Shyty"
        },
        "model": "training.profanity",
        "pk": 684
    },
    {
        "fields": {
            "created": "2015-08-14T11:32:40.737Z",
            "name": "skanck"
        },
        "model": "training.profanity",
        "pk": 685
    },
    {
        "fields": {
            "created": "2015-08-14T11:32:40.741Z",
            "name": "skank"
        },
        "model": "training.profanity",
        "pk": 686
    },
    {
        "fields": {
            "created": "2015-08-14T11:32:40.746Z",
            "name": "skankee"
        },
        "model": "training.profanity",
        "pk": 687
    },
    {
        "fields": {
            "created": "2015-08-14T11:32:40.749Z",
            "name": "skankey"
        },
        "model": "training.profanity",
        "pk": 688
    },
    {
        "fields": {
            "created": "2015-08-14T11:32:40.753Z",
            "name": "skanks"
        },
        "model": "training.profanity",
        "pk": 689
    },
    {
        "fields": {
            "created": "2015-08-14T11:32:40.757Z",
            "name": "Skanky"
        },
        "model": "training.profanity",
        "pk": 690
    },
    {
        "fields": {
            "created": "2015-08-14T11:32:40.761Z",
            "name": "slut"
        },
        "model": "training.profanity",
        "pk": 691
    },
    {
        "fields": {
            "created": "2015-08-14T11:32:40.766Z",
            "name": "sluts"
        },
        "model": "training.profanity",
        "pk": 692
    },
    {
        "fields": {
            "created": "2015-08-14T11:32:40.769Z",
            "name": "Slutty"
        },
        "model": "training.profanity",
        "pk": 693
    },
    {
        "fields": {
            "created": "2015-08-14T11:32:40.773Z",
            "name": "slutz"
        },
        "model": "training.profanity",
        "pk": 694
    },
    {
        "fields": {
            "created": "2015-08-14T11:32:40.778Z",
            "name": "son-of-a-bitch"
        },
        "model": "training.profanity",
        "pk": 695
    },
    {
        "fields": {
            "created": "2015-08-14T11:32:40.782Z",
            "name": "tit"
        },
        "model": "training.profanity",
        "pk": 696
    },
    {
        "fields": {
            "created": "2015-08-14T11:32:40.786Z",
            "name": "turd"
        },
        "model": "training.profanity",
        "pk": 697
    },
    {
        "fields": {
            "created": "2015-08-14T11:32:40.790Z",
            "name": "va1jina"
        },
        "model": "training.profanity",
        "pk": 698
    },
    {
        "fields": {
            "created": "2015-08-14T11:32:40.794Z",
            "name": "vag1na"
        },
        "model": "training.profanity",
        "pk": 699
    },
    {
        "fields": {
            "created": "2015-08-14T11:32:40.798Z",
            "name": "vagiina"
        },
        "model": "training.profanity",
        "pk": 700
    },
    {
        "fields": {
            "created": "2015-08-14T11:32:40.802Z",
            "name": "vagina"
        },
        "model": "training.profanity",
        "pk": 701
    },
    {
        "fields": {
            "created": "2015-08-14T11:32:40.806Z",
            "name": "vaj1na"
        },
        "model": "training.profanity",
        "pk": 702
    },
    {
        "fields": {
            "created": "2015-08-14T11:32:40.810Z",
            "name": "vajina"
        },
        "model": "training.profanity",
        "pk": 703
    },
    {
        "fields": {
            "created": "2015-08-14T11:32:40.814Z",
            "name": "vullva"
        },
        "model": "training.profanity",
        "pk": 704
    },
    {
        "fields": {
            "created": "2015-08-14T11:32:40.818Z",
            "name": "vulva"
        },
        "model": "training.profanity",
        "pk": 705
    },
    {
        "fields": {
            "created": "2015-08-14T11:32:40.823Z",
            "name": "w0p"
        },
        "model": "training.profanity",
        "pk": 706
    },
    {
        "fields": {
            "created": "2015-08-14T11:32:40.827Z",
            "name": "wh00r"
        },
        "model": "training.profanity",
        "pk": 707
    },
    {
        "fields": {
            "created": "2015-08-14T11:32:40.831Z",
            "name": "wh0re"
        },
        "model": "training.profanity",
        "pk": 708
    },
    {
        "fields": {
            "created": "2015-08-14T11:32:40.835Z",
            "name": "whore"
        },
        "model": "training.profanity",
        "pk": 709
    },
    {
        "fields": {
            "created": "2015-08-14T11:32:40.839Z",
            "name": "xrated"
        },
        "model": "training.profanity",
        "pk": 710
    },
    {
        "fields": {
            "created": "2015-08-14T11:32:40.843Z",
            "name": "xxx"
        },
        "model": "training.profanity",
        "pk": 711
    },
    {
        "fields": {
            "created": "2015-08-14T11:32:40.847Z",
            "name": "b!+ch"
        },
        "model": "training.profanity",
        "pk": 712
    },
    {
        "fields": {
            "created": "2015-08-14T11:32:40.851Z",
            "name": "bitch"
        },
        "model": "training.profanity",
        "pk": 713
    },
    {
        "fields": {
            "created": "2015-08-14T11:32:40.855Z",
            "name": "blowjob"
        },
        "model": "training.profanity",
        "pk": 714
    },
    {
        "fields": {
            "created": "2015-08-14T11:32:40.859Z",
            "name": "clit"
        },
        "model": "training.profanity",
        "pk": 715
    },
    {
        "fields": {
            "created": "2015-08-14T11:32:40.863Z",
            "name": "arschloch"
        },
        "model": "training.profanity",
        "pk": 716
    },
    {
        "fields": {
            "created": "2015-08-14T11:32:40.867Z",
            "name": "fuck"
        },
        "model": "training.profanity",
        "pk": 717
    },
    {
        "fields": {
            "created": "2015-08-14T11:32:40.870Z",
            "name": "shit"
        },
        "model": "training.profanity",
        "pk": 718
    },
    {
        "fields": {
            "created": "2015-08-14T11:32:40.874Z",
            "name": "ass"
        },
        "model": "training.profanity",
        "pk": 719
    },
    {
        "fields": {
            "created": "2015-08-14T11:32:40.878Z",
            "name": "asshole"
        },
        "model": "training.profanity",
        "pk": 720
    },
    {
        "fields": {
            "created": "2015-08-14T11:32:40.882Z",
            "name": "b!tch"
        },
        "model": "training.profanity",
        "pk": 721
    },
    {
        "fields": {
            "created": "2015-08-14T11:32:40.886Z",
            "name": "b17ch"
        },
        "model": "training.profanity",
        "pk": 722
    },
    {
        "fields": {
            "created": "2015-08-14T11:32:40.891Z",
            "name": "b1tch"
        },
        "model": "training.profanity",
        "pk": 723
    },
    {
        "fields": {
            "created": "2015-08-14T11:32:40.895Z",
            "name": "bastard"
        },
        "model": "training.profanity",
        "pk": 724
    },
    {
        "fields": {
            "created": "2015-08-14T11:32:40.899Z",
            "name": "bi+ch"
        },
        "model": "training.profanity",
        "pk": 725
    },
    {
        "fields": {
            "created": "2015-08-14T11:32:40.904Z",
            "name": "boiolas"
        },
        "model": "training.profanity",
        "pk": 726
    },
    {
        "fields": {
            "created": "2015-08-14T11:32:40.909Z",
            "name": "buceta"
        },
        "model": "training.profanity",
        "pk": 727
    },
    {
        "fields": {
            "created": "2015-08-14T11:32:40.913Z",
            "name": "c0ck"
        },
        "model": "training.profanity",
        "pk": 728
    },
    {
        "fields": {
            "created": "2015-08-14T11:32:40.917Z",
            "name": "cawk"
        },
        "model": "training.profanity",
        "pk": 729
    },
    {
        "fields": {
            "created": "2015-08-14T11:32:40.921Z",
            "name": "chink"
        },
        "model": "training.profanity",
        "pk": 730
    },
    {
        "fields": {
            "created": "2015-08-14T11:32:40.925Z",
            "name": "cipa"
        },
        "model": "training.profanity",
        "pk": 731
    },
    {
        "fields": {
            "created": "2015-08-14T11:32:40.929Z",
            "name": "clits"
        },
        "model": "training.profanity",
        "pk": 732
    },
    {
        "fields": {
            "created": "2015-08-14T11:32:40.933Z",
            "name": "cock"
        },
        "model": "training.profanity",
        "pk": 733
    },
    {
        "fields": {
            "created": "2015-08-14T11:32:40.937Z",
            "name": "cum"
        },
        "model": "training.profanity",
        "pk": 734
    },
    {
        "fields": {
            "created": "2015-08-14T11:32:40.942Z",
            "name": "cunt"
        },
        "model": "training.profanity",
        "pk": 735
    },
    {
        "fields": {
            "created": "2015-08-14T11:32:40.946Z",
            "name": "dildo"
        },
        "model": "training.profanity",
        "pk": 736
    },
    {
        "fields": {
            "created": "2015-08-14T11:32:40.950Z",
            "name": "dirsa"
        },
        "model": "training.profanity",
        "pk": 737
    },
    {
        "fields": {
            "created": "2015-08-14T11:32:40.955Z",
            "name": "ejakulate"
        },
        "model": "training.profanity",
        "pk": 738
    },
    {
        "fields": {
            "created": "2015-08-14T11:32:40.959Z",
            "name": "fatass"
        },
        "model": "training.profanity",
        "pk": 739
    },
    {
        "fields": {
            "created": "2015-08-14T11:32:40.963Z",
            "name": "fcuk"
        },
        "model": "training.profanity",
        "pk": 740
    },
    {
        "fields": {
            "created": "2015-08-14T11:32:40.967Z",
            "name": "fuk"
        },
        "model": "training.profanity",
        "pk": 741
    },
    {
        "fields": {
            "created": "2015-08-14T11:32:40.970Z",
            "name": "fux0r"
        },
        "model": "training.profanity",
        "pk": 742
    },
    {
        "fields": {
            "created": "2015-08-14T11:32:40.974Z",
            "name": "hoer"
        },
        "model": "training.profanity",
        "pk": 743
    },
    {
        "fields": {
            "created": "2015-08-14T11:32:40.978Z",
            "name": "hore"
        },
        "model": "training.profanity",
        "pk": 744
    },
    {
        "fields": {
            "created": "2015-08-14T11:32:40.982Z",
            "name": "jism"
        },
        "model": "training.profanity",
        "pk": 745
    },
    {
        "fields": {
            "created": "2015-08-14T11:32:40.985Z",
            "name": "kawk"
        },
        "model": "training.profanity",
        "pk": 746
    },
    {
        "fields": {
            "created": "2015-08-14T11:32:40.989Z",
            "name": "l3itch"
        },
        "model": "training.profanity",
        "pk": 747
    },
    {
        "fields": {
            "created": "2015-08-14T11:32:40.993Z",
            "name": "l3i+ch"
        },
        "model": "training.profanity",
        "pk": 748
    },
    {
        "fields": {
            "created": "2015-08-14T11:32:40.997Z",
            "name": "lesbian"
        },
        "model": "training.profanity",
        "pk": 749
    },
    {
        "fields": {
            "created": "2015-08-14T11:32:41Z",
            "name": "masturbate"
        },
        "model": "training.profanity",
        "pk": 750
    },
    {
        "fields": {
            "created": "2015-08-14T11:32:41.004Z",
            "name": "masterbat*"
        },
        "model": "training.profanity",
        "pk": 751
    },
    {
        "fields": {
            "created": "2015-08-14T11:32:41.007Z",
            "name": "masterbat3"
        },
        "model": "training.profanity",
        "pk": 752
    },
    {
        "fields": {
            "created": "2015-08-14T11:32:41.011Z",
            "name": "motherfucker"
        },
        "model": "training.profanity",
        "pk": 753
    },
    {
        "fields": {
            "created": "2015-08-14T11:32:41.015Z",
            "name": "s.o.b."
        },
        "model": "training.profanity",
        "pk": 754
    },
    {
        "fields": {
            "created": "2015-08-14T11:32:41.019Z",
            "name": "mofo"
        },
        "model": "training.profanity",
        "pk": 755
    },
    {
        "fields": {
            "created": "2015-08-14T11:32:41.022Z",
            "name": "nazi"
        },
        "model": "training.profanity",
        "pk": 756
    },
    {
        "fields": {
            "created": "2015-08-14T11:32:41.026Z",
            "name": "nigga"
        },
        "model": "training.profanity",
        "pk": 757
    },
    {
        "fields": {
            "created": "2015-08-14T11:32:41.030Z",
            "name": "nigger"
        },
        "model": "training.profanity",
        "pk": 758
    },
    {
        "fields": {
            "created": "2015-08-14T11:32:41.033Z",
            "name": "nutsack"
        },
        "model": "training.profanity",
        "pk": 759
    },
    {
        "fields": {
            "created": "2015-08-14T11:32:41.037Z",
            "name": "phuck"
        },
        "model": "training.profanity",
        "pk": 760
    },
    {
        "fields": {
            "created": "2015-08-14T11:32:41.041Z",
            "name": "pimpis"
        },
        "model": "training.profanity",
        "pk": 761
    },
    {
        "fields": {
            "created": "2015-08-14T11:32:41.045Z",
            "name": "pusse"
        },
        "model": "training.profanity",
        "pk": 762
    },
    {
        "fields": {
            "created": "2015-08-14T11:32:41.051Z",
            "name": "pussy"
        },
        "model": "training.profanity",
        "pk": 763
    },
    {
        "fields": {
            "created": "2015-08-14T11:32:41.054Z",
            "name": "scrotum"
        },
        "model": "training.profanity",
        "pk": 764
    },
    {
        "fields": {
            "created": "2015-08-14T11:32:41.058Z",
            "name": "sh!t"
        },
        "model": "training.profanity",
        "pk": 765
    },
    {
        "fields": {
            "created": "2015-08-14T11:32:41.060Z",
            "name": "shemale"
        },
        "model": "training.profanity",
        "pk": 766
    },
    {
        "fields": {
            "created": "2015-08-14T11:32:41.064Z",
            "name": "shi+"
        },
        "model": "training.profanity",
        "pk": 767
    },
    {
        "fields": {
            "created": "2015-08-14T11:32:41.068Z",
            "name": "sh!+"
        },
        "model": "training.profanity",
        "pk": 768
    },
    {
        "fields": {
            "created": "2015-08-14T11:32:41.072Z",
            "name": "slut"
        },
        "model": "training.profanity",
        "pk": 769
    },
    {
        "fields": {
            "created": "2015-08-14T11:32:41.075Z",
            "name": "smut"
        },
        "model": "training.profanity",
        "pk": 770
    },
    {
        "fields": {
            "created": "2015-08-14T11:32:41.080Z",
            "name": "teets"
        },
        "model": "training.profanity",
        "pk": 771
    },
    {
        "fields": {
            "created": "2015-08-14T11:32:41.084Z",
            "name": "tits"
        },
        "model": "training.profanity",
        "pk": 772
    },
    {
        "fields": {
            "created": "2015-08-14T11:32:41.088Z",
            "name": "boobs"
        },
        "model": "training.profanity",
        "pk": 773
    },
    {
        "fields": {
            "created": "2015-08-14T11:32:41.092Z",
            "name": "b00bs"
        },
        "model": "training.profanity",
        "pk": 774
    },
    {
        "fields": {
            "created": "2015-08-14T11:32:41.096Z",
            "name": "teez"
        },
        "model": "training.profanity",
        "pk": 775
    },
    {
        "fields": {
            "created": "2015-08-14T11:32:41.100Z",
            "name": "testical"
        },
        "model": "training.profanity",
        "pk": 776
    },
    {
        "fields": {
            "created": "2015-08-14T11:32:41.104Z",
            "name": "testicle"
        },
        "model": "training.profanity",
        "pk": 777
    },
    {
        "fields": {
            "created": "2015-08-14T11:32:41.108Z",
            "name": "titt"
        },
        "model": "training.profanity",
        "pk": 778
    },
    {
        "fields": {
            "created": "2015-08-14T11:32:41.112Z",
            "name": "w00se"
        },
        "model": "training.profanity",
        "pk": 779
    },
    {
        "fields": {
            "created": "2015-08-14T11:32:41.116Z",
            "name": "jackoff"
        },
        "model": "training.profanity",
        "pk": 780
    },
    {
        "fields": {
            "created": "2015-08-14T11:32:41.120Z",
            "name": "wank"
        },
        "model": "training.profanity",
        "pk": 781
    },
    {
        "fields": {
            "created": "2015-08-14T11:32:41.123Z",
            "name": "whoar"
        },
        "model": "training.profanity",
        "pk": 782
    },
    {
        "fields": {
            "created": "2015-08-14T11:32:41.127Z",
            "name": "whore"
        },
        "model": "training.profanity",
        "pk": 783
    },
    {
        "fields": {
            "created": "2015-08-14T11:32:41.132Z",
            "name": "*damn"
        },
        "model": "training.profanity",
        "pk": 784
    },
    {
        "fields": {
            "created": "2015-08-14T11:32:41.136Z",
            "name": "*dyke"
        },
        "model": "training.profanity",
        "pk": 785
    },
    {
        "fields": {
            "created": "2015-08-14T11:32:41.141Z",
            "name": "*fuck*"
        },
        "model": "training.profanity",
        "pk": 786
    },
    {
        "fields": {
            "created": "2015-08-14T11:32:41.145Z",
            "name": "*shit*"
        },
        "model": "training.profanity",
        "pk": 787
    },
    {
        "fields": {
            "created": "2015-08-14T11:32:41.149Z",
            "name": "@$$"
        },
        "model": "training.profanity",
        "pk": 788
    },
    {
        "fields": {
            "created": "2015-08-14T11:32:41.153Z",
            "name": "amcik"
        },
        "model": "training.profanity",
        "pk": 789
    },
    {
        "fields": {
            "created": "2015-08-14T11:32:41.158Z",
            "name": "andskota"
        },
        "model": "training.profanity",
        "pk": 790
    },
    {
        "fields": {
            "created": "2015-08-14T11:32:41.162Z",
            "name": "arse*"
        },
        "model": "training.profanity",
        "pk": 791
    },
    {
        "fields": {
            "created": "2015-08-14T11:32:41.166Z",
            "name": "assrammer"
        },
        "model": "training.profanity",
        "pk": 792
    },
    {
        "fields": {
            "created": "2015-08-14T11:32:41.170Z",
            "name": "ayir"
        },
        "model": "training.profanity",
        "pk": 793
    },
    {
        "fields": {
            "created": "2015-08-14T11:32:41.174Z",
            "name": "bi7ch"
        },
        "model": "training.profanity",
        "pk": 794
    },
    {
        "fields": {
            "created": "2015-08-14T11:32:41.179Z",
            "name": "bitch*"
        },
        "model": "training.profanity",
        "pk": 795
    },
    {
        "fields": {
            "created": "2015-08-14T11:32:41.182Z",
            "name": "bollock*"
        },
        "model": "training.profanity",
        "pk": 796
    },
    {
        "fields": {
            "created": "2015-08-14T11:32:41.186Z",
            "name": "breasts"
        },
        "model": "training.profanity",
        "pk": 797
    },
    {
        "fields": {
            "created": "2015-08-14T11:32:41.190Z",
            "name": "butt-pirate"
        },
        "model": "training.profanity",
        "pk": 798
    },
    {
        "fields": {
            "created": "2015-08-14T11:32:41.195Z",
            "name": "cabron"
        },
        "model": "training.profanity",
        "pk": 799
    },
    {
        "fields": {
            "created": "2015-08-14T11:32:41.199Z",
            "name": "cazzo"
        },
        "model": "training.profanity",
        "pk": 800
    },
    {
        "fields": {
            "created": "2015-08-14T11:32:41.203Z",
            "name": "chraa"
        },
        "model": "training.profanity",
        "pk": 801
    },
    {
        "fields": {
            "created": "2015-08-14T11:32:41.208Z",
            "name": "chuj"
        },
        "model": "training.profanity",
        "pk": 802
    },
    {
        "fields": {
            "created": "2015-08-14T11:32:41.212Z",
            "name": "Cock*"
        },
        "model": "training.profanity",
        "pk": 803
    },
    {
        "fields": {
            "created": "2015-08-14T11:32:41.215Z",
            "name": "cunt*"
        },
        "model": "training.profanity",
        "pk": 804
    },
    {
        "fields": {
            "created": "2015-08-14T11:32:41.219Z",
            "name": "d4mn"
        },
        "model": "training.profanity",
        "pk": 805
    },
    {
        "fields": {
            "created": "2015-08-14T11:32:41.222Z",
            "name": "daygo"
        },
        "model": "training.profanity",
        "pk": 806
    },
    {
        "fields": {
            "created": "2015-08-14T11:32:41.226Z",
            "name": "dego"
        },
        "model": "training.profanity",
        "pk": 807
    },
    {
        "fields": {
            "created": "2015-08-14T11:32:41.230Z",
            "name": "dick*"
        },
        "model": "training.profanity",
        "pk": 808
    },
    {
        "fields": {
            "created": "2015-08-14T11:32:41.234Z",
            "name": "dike*"
        },
        "model": "training.profanity",
        "pk": 809
    },
    {
        "fields": {
            "created": "2015-08-14T11:32:41.241Z",
            "name": "dupa"
        },
        "model": "training.profanity",
        "pk": 810
    },
    {
        "fields": {
            "created": "2015-08-14T11:32:41.245Z",
            "name": "dziwka"
        },
        "model": "training.profanity",
        "pk": 811
    },
    {
        "fields": {
            "created": "2015-08-14T11:32:41.249Z",
            "name": "ejackulate"
        },
        "model": "training.profanity",
        "pk": 812
    },
    {
        "fields": {
            "created": "2015-08-14T11:32:41.254Z",
            "name": "Ekrem*"
        },
        "model": "training.profanity",
        "pk": 813
    },
    {
        "fields": {
            "created": "2015-08-14T11:32:41.257Z",
            "name": "Ekto"
        },
        "model": "training.profanity",
        "pk": 814
    },
    {
        "fields": {
            "created": "2015-08-14T11:32:41.261Z",
            "name": "enculer"
        },
        "model": "training.profanity",
        "pk": 815
    },
    {
        "fields": {
            "created": "2015-08-14T11:32:41.265Z",
            "name": "faen"
        },
        "model": "training.profanity",
        "pk": 816
    },
    {
        "fields": {
            "created": "2015-08-14T11:32:41.268Z",
            "name": "fag*"
        },
        "model": "training.profanity",
        "pk": 817
    },
    {
        "fields": {
            "created": "2015-08-14T11:32:41.272Z",
            "name": "fanculo"
        },
        "model": "training.profanity",
        "pk": 818
    },
    {
        "fields": {
            "created": "2015-08-14T11:32:41.276Z",
            "name": "fanny"
        },
        "model": "training.profanity",
        "pk": 819
    },
    {
        "fields": {
            "created": "2015-08-14T11:32:41.282Z",
            "name": "feces"
        },
        "model": "training.profanity",
        "pk": 820
    },
    {
        "fields": {
            "created": "2015-08-14T11:32:41.286Z",
            "name": "feg"
        },
        "model": "training.profanity",
        "pk": 821
    },
    {
        "fields": {
            "created": "2015-08-14T11:32:41.290Z",
            "name": "Felcher"
        },
        "model": "training.profanity",
        "pk": 822
    },
    {
        "fields": {
            "created": "2015-08-14T11:32:41.294Z",
            "name": "ficken"
        },
        "model": "training.profanity",
        "pk": 823
    },
    {
        "fields": {
            "created": "2015-08-14T11:32:41.299Z",
            "name": "fitt*"
        },
        "model": "training.profanity",
        "pk": 824
    },
    {
        "fields": {
            "created": "2015-08-14T11:32:41.303Z",
            "name": "Flikker"
        },
        "model": "training.profanity",
        "pk": 825
    },
    {
        "fields": {
            "created": "2015-08-14T11:32:41.307Z",
            "name": "foreskin"
        },
        "model": "training.profanity",
        "pk": 826
    },
    {
        "fields": {
            "created": "2015-08-14T11:32:41.311Z",
            "name": "Fotze"
        },
        "model": "training.profanity",
        "pk": 827
    },
    {
        "fields": {
            "created": "2015-08-14T11:32:41.315Z",
            "name": "Fu(*"
        },
        "model": "training.profanity",
        "pk": 828
    },
    {
        "fields": {
            "created": "2015-08-14T11:32:41.319Z",
            "name": "fuk*"
        },
        "model": "training.profanity",
        "pk": 829
    },
    {
        "fields": {
            "created": "2015-08-14T11:32:41.324Z",
            "name": "futkretzn"
        },
        "model": "training.profanity",
        "pk": 830
    },
    {
        "fields": {
            "created": "2015-08-14T11:32:41.328Z",
            "name": "gay"
        },
        "model": "training.profanity",
        "pk": 831
    },
    {
        "fields": {
            "created": "2015-08-14T11:32:41.332Z",
            "name": "gook"
        },
        "model": "training.profanity",
        "pk": 832
    },
    {
        "fields": {
            "created": "2015-08-14T11:32:41.336Z",
            "name": "guiena"
        },
        "model": "training.profanity",
        "pk": 833
    },
    {
        "fields": {
            "created": "2015-08-14T11:32:41.340Z",
            "name": "h0r"
        },
        "model": "training.profanity",
        "pk": 834
    },
    {
        "fields": {
            "created": "2015-08-14T11:32:41.344Z",
            "name": "h4x0r"
        },
        "model": "training.profanity",
        "pk": 835
    },
    {
        "fields": {
            "created": "2015-08-14T11:32:41.348Z",
            "name": "hell"
        },
        "model": "training.profanity",
        "pk": 836
    },
    {
        "fields": {
            "created": "2015-08-14T11:32:41.352Z",
            "name": "helvete"
        },
        "model": "training.profanity",
        "pk": 837
    },
    {
        "fields": {
            "created": "2015-08-14T11:32:41.356Z",
            "name": "hoer*"
        },
        "model": "training.profanity",
        "pk": 838
    },
    {
        "fields": {
            "created": "2015-08-14T11:32:41.360Z",
            "name": "honkey"
        },
        "model": "training.profanity",
        "pk": 839
    },
    {
        "fields": {
            "created": "2015-08-14T11:32:41.364Z",
            "name": "Huevon"
        },
        "model": "training.profanity",
        "pk": 840
    },
    {
        "fields": {
            "created": "2015-08-14T11:32:41.368Z",
            "name": "hui"
        },
        "model": "training.profanity",
        "pk": 841
    },
    {
        "fields": {
            "created": "2015-08-14T11:32:41.372Z",
            "name": "injun"
        },
        "model": "training.profanity",
        "pk": 842
    },
    {
        "fields": {
            "created": "2015-08-14T11:32:41.375Z",
            "name": "jizz"
        },
        "model": "training.profanity",
        "pk": 843
    },
    {
        "fields": {
            "created": "2015-08-14T11:32:41.379Z",
            "name": "kanker*"
        },
        "model": "training.profanity",
        "pk": 844
    },
    {
        "fields": {
            "created": "2015-08-14T11:32:41.383Z",
            "name": "kike"
        },
        "model": "training.profanity",
        "pk": 845
    },
    {
        "fields": {
            "created": "2015-08-14T11:32:41.388Z",
            "name": "klootzak"
        },
        "model": "training.profanity",
        "pk": 846
    },
    {
        "fields": {
            "created": "2015-08-14T11:32:41.392Z",
            "name": "kraut"
        },
        "model": "training.profanity",
        "pk": 847
    },
    {
        "fields": {
            "created": "2015-08-14T11:32:41.397Z",
            "name": "knulle"
        },
        "model": "training.profanity",
        "pk": 848
    },
    {
        "fields": {
            "created": "2015-08-14T11:32:41.401Z",
            "name": "kuk"
        },
        "model": "training.profanity",
        "pk": 849
    },
    {
        "fields": {
            "created": "2015-08-14T11:32:41.405Z",
            "name": "kuksuger"
        },
        "model": "training.profanity",
        "pk": 850
    },
    {
        "fields": {
            "created": "2015-08-14T11:32:41.409Z",
            "name": "Kurac"
        },
        "model": "training.profanity",
        "pk": 851
    },
    {
        "fields": {
            "created": "2015-08-14T11:32:41.414Z",
            "name": "kurwa"
        },
        "model": "training.profanity",
        "pk": 852
    },
    {
        "fields": {
            "created": "2015-08-14T11:32:41.417Z",
            "name": "kusi*"
        },
        "model": "training.profanity",
        "pk": 853
    },
    {
        "fields": {
            "created": "2015-08-14T11:32:41.422Z",
            "name": "kyrpa*"
        },
        "model": "training.profanity",
        "pk": 854
    },
    {
        "fields": {
            "created": "2015-08-14T11:32:41.426Z",
            "name": "lesbo"
        },
        "model": "training.profanity",
        "pk": 855
    },
    {
        "fields": {
            "created": "2015-08-14T11:32:41.430Z",
            "name": "mamhoon"
        },
        "model": "training.profanity",
        "pk": 856
    },
    {
        "fields": {
            "created": "2015-08-14T11:32:41.434Z",
            "name": "masturbat*"
        },
        "model": "training.profanity",
        "pk": 857
    },
    {
        "fields": {
            "created": "2015-08-14T11:32:41.439Z",
            "name": "merd*"
        },
        "model": "training.profanity",
        "pk": 858
    },
    {
        "fields": {
            "created": "2015-08-14T11:32:41.444Z",
            "name": "mibun"
        },
        "model": "training.profanity",
        "pk": 859
    },
    {
        "fields": {
            "created": "2015-08-14T11:32:41.448Z",
            "name": "monkleigh"
        },
        "model": "training.profanity",
        "pk": 860
    },
    {
        "fields": {
            "created": "2015-08-14T11:32:41.453Z",
            "name": "mouliewop"
        },
        "model": "training.profanity",
        "pk": 861
    },
    {
        "fields": {
            "created": "2015-08-14T11:32:41.457Z",
            "name": "muie"
        },
        "model": "training.profanity",
        "pk": 862
    },
    {
        "fields": {
            "created": "2015-08-14T11:32:41.460Z",
            "name": "mulkku"
        },
        "model": "training.profanity",
        "pk": 863
    },
    {
        "fields": {
            "created": "2015-08-14T11:32:41.465Z",
            "name": "muschi"
        },
        "model": "training.profanity",
        "pk": 864
    },
    {
        "fields": {
            "created": "2015-08-14T11:32:41.469Z",
            "name": "nazis"
        },
        "model": "training.profanity",
        "pk": 865
    },
    {
        "fields": {
            "created": "2015-08-14T11:32:41.473Z",
            "name": "nepesaurio"
        },
        "model": "training.profanity",
        "pk": 866
    },
    {
        "fields": {
            "created": "2015-08-14T11:32:41.476Z",
            "name": "nigger*"
        },
        "model": "training.profanity",
        "pk": 867
    },
    {
        "fields": {
            "created": "2015-08-14T11:32:41.483Z",
            "name": "orospu"
        },
        "model": "training.profanity",
        "pk": 868
    },
    {
        "fields": {
            "created": "2015-08-14T11:32:41.486Z",
            "name": "paska*"
        },
        "model": "training.profanity",
        "pk": 869
    },
    {
        "fields": {
            "created": "2015-08-14T11:32:41.490Z",
            "name": "perse"
        },
        "model": "training.profanity",
        "pk": 870
    },
    {
        "fields": {
            "created": "2015-08-14T11:32:41.494Z",
            "name": "picka"
        },
        "model": "training.profanity",
        "pk": 871
    },
    {
        "fields": {
            "created": "2015-08-14T11:32:41.498Z",
            "name": "pierdol*"
        },
        "model": "training.profanity",
        "pk": 872
    },
    {
        "fields": {
            "created": "2015-08-14T11:32:41.502Z",
            "name": "pillu*"
        },
        "model": "training.profanity",
        "pk": 873
    },
    {
        "fields": {
            "created": "2015-08-14T11:32:41.505Z",
            "name": "pimmel"
        },
        "model": "training.profanity",
        "pk": 874
    },
    {
        "fields": {
            "created": "2015-08-14T11:32:41.508Z",
            "name": "piss*"
        },
        "model": "training.profanity",
        "pk": 875
    },
    {
        "fields": {
            "created": "2015-08-14T11:32:41.513Z",
            "name": "pizda"
        },
        "model": "training.profanity",
        "pk": 876
    },
    {
        "fields": {
            "created": "2015-08-14T11:32:41.517Z",
            "name": "poontsee"
        },
        "model": "training.profanity",
        "pk": 877
    },
    {
        "fields": {
            "created": "2015-08-14T11:32:41.520Z",
            "name": "poop"
        },
        "model": "training.profanity",
        "pk": 878
    },
    {
        "fields": {
            "created": "2015-08-14T11:32:41.524Z",
            "name": "porn"
        },
        "model": "training.profanity",
        "pk": 879
    },
    {
        "fields": {
            "created": "2015-08-14T11:32:41.528Z",
            "name": "p0rn"
        },
        "model": "training.profanity",
        "pk": 880
    },
    {
        "fields": {
            "created": "2015-08-14T11:32:41.531Z",
            "name": "pr0n"
        },
        "model": "training.profanity",
        "pk": 881
    },
    {
        "fields": {
            "created": "2015-08-14T11:32:41.535Z",
            "name": "preteen"
        },
        "model": "training.profanity",
        "pk": 882
    },
    {
        "fields": {
            "created": "2015-08-14T11:32:41.539Z",
            "name": "pula"
        },
        "model": "training.profanity",
        "pk": 883
    },
    {
        "fields": {
            "created": "2015-08-14T11:32:41.542Z",
            "name": "pule"
        },
        "model": "training.profanity",
        "pk": 884
    },
    {
        "fields": {
            "created": "2015-08-14T11:32:41.546Z",
            "name": "puta"
        },
        "model": "training.profanity",
        "pk": 885
    },
    {
        "fields": {
            "created": "2015-08-14T11:32:41.550Z",
            "name": "puto"
        },
        "model": "training.profanity",
        "pk": 886
    },
    {
        "fields": {
            "created": "2015-08-14T11:32:41.554Z",
            "name": "qahbeh"
        },
        "model": "training.profanity",
        "pk": 887
    },
    {
        "fields": {
            "created": "2015-08-14T11:32:41.557Z",
            "name": "queef*"
        },
        "model": "training.profanity",
        "pk": 888
    },
    {
        "fields": {
            "created": "2015-08-14T11:32:41.561Z",
            "name": "rautenberg"
        },
        "model": "training.profanity",
        "pk": 889
    },
    {
        "fields": {
            "created": "2015-08-14T11:32:41.567Z",
            "name": "schaffer"
        },
        "model": "training.profanity",
        "pk": 890
    },
    {
        "fields": {
            "created": "2015-08-14T11:32:41.570Z",
            "name": "scheiss*"
        },
        "model": "training.profanity",
        "pk": 891
    },
    {
        "fields": {
            "created": "2015-08-14T11:32:41.573Z",
            "name": "schlampe"
        },
        "model": "training.profanity",
        "pk": 892
    },
    {
        "fields": {
            "created": "2015-08-14T11:32:41.577Z",
            "name": "schmuck"
        },
        "model": "training.profanity",
        "pk": 893
    },
    {
        "fields": {
            "created": "2015-08-14T11:32:41.581Z",
            "name": "screw"
        },
        "model": "training.profanity",
        "pk": 894
    },
    {
        "fields": {
            "created": "2015-08-14T11:32:41.585Z",
            "name": "sh!t*"
        },
        "model": "training.profanity",
        "pk": 895
    },
    {
        "fields": {
            "created": "2015-08-14T11:32:41.587Z",
            "name": "sharmuta"
        },
        "model": "training.profanity",
        "pk": 896
    },
    {
        "fields": {
            "created": "2015-08-14T11:32:41.591Z",
            "name": "sharmute"
        },
        "model": "training.profanity",
        "pk": 897
    },
    {
        "fields": {
            "created": "2015-08-14T11:32:41.594Z",
            "name": "shipal"
        },
        "model": "training.profanity",
        "pk": 898
    },
    {
        "fields": {
            "created": "2015-08-14T11:32:41.598Z",
            "name": "shiz"
        },
        "model": "training.profanity",
        "pk": 899
    },
    {
        "fields": {
            "created": "2015-08-14T11:32:41.602Z",
            "name": "skribz"
        },
        "model": "training.profanity",
        "pk": 900
    },
    {
        "fields": {
            "created": "2015-08-14T11:32:41.605Z",
            "name": "skurwysyn"
        },
        "model": "training.profanity",
        "pk": 901
    },
    {
        "fields": {
            "created": "2015-08-14T11:32:41.609Z",
            "name": "sphencter"
        },
        "model": "training.profanity",
        "pk": 902
    },
    {
        "fields": {
            "created": "2015-08-14T11:32:41.613Z",
            "name": "spic"
        },
        "model": "training.profanity",
        "pk": 903
    },
    {
        "fields": {
            "created": "2015-08-14T11:32:41.617Z",
            "name": "spierdalaj"
        },
        "model": "training.profanity",
        "pk": 904
    },
    {
        "fields": {
            "created": "2015-08-14T11:32:41.621Z",
            "name": "splooge"
        },
        "model": "training.profanity",
        "pk": 905
    },
    {
        "fields": {
            "created": "2015-08-14T11:32:41.624Z",
            "name": "suka"
        },
        "model": "training.profanity",
        "pk": 906
    },
    {
        "fields": {
            "created": "2015-08-14T11:32:41.629Z",
            "name": "b00b*"
        },
        "model": "training.profanity",
        "pk": 907
    },
    {
        "fields": {
            "created": "2015-08-14T11:32:41.632Z",
            "name": "testicle*"
        },
        "model": "training.profanity",
        "pk": 908
    },
    {
        "fields": {
            "created": "2015-08-14T11:32:41.637Z",
            "name": "titt*"
        },
        "model": "training.profanity",
        "pk": 909
    },
    {
        "fields": {
            "created": "2015-08-14T11:32:41.641Z",
            "name": "twat"
        },
        "model": "training.profanity",
        "pk": 910
    },
    {
        "fields": {
            "created": "2015-08-14T11:32:41.646Z",
            "name": "vittu"
        },
        "model": "training.profanity",
        "pk": 911
    },
    {
        "fields": {
            "created": "2015-08-14T11:32:41.650Z",
            "name": "wank*"
        },
        "model": "training.profanity",
        "pk": 912
    },
    {
        "fields": {
            "created": "2015-08-14T11:32:41.655Z",
            "name": "wetback*"
        },
        "model": "training.profanity",
        "pk": 913
    },
    {
        "fields": {
            "created": "2015-08-14T11:32:41.659Z",
            "name": "wichser"
        },
        "model": "training.profanity",
        "pk": 914
    },
    {
        "fields": {
            "created": "2015-08-14T11:32:41.663Z",
            "name": "wop*"
        },
        "model": "training.profanity",
        "pk": 915
    },
    {
        "fields": {
            "created": "2015-08-14T11:32:41.668Z",
            "name": "yed"
        },
        "model": "training.profanity",
        "pk": 916
    },
    {
        "fields": {
            "created": "2015-08-14T11:32:41.671Z",
            "name": "zabourah"
        },
        "model": "training.profanity",
        "pk": 917
    },
    {
        "fields": {
            "created": "2015-08-20T12:23:11.572Z",
            "name": "naked"
        },
        "model": "training.profanity",
        "pk": 918
    },
    {
        "fields": {
            "created": "2015-08-20T12:24:17.464Z",
            "name": "butt"
        },
        "model": "training.profanity",
        "pk": 919
    },
    {
        "fields": {
            "created": "2015-08-21T13:32:44.803Z",
            "name": "adult"
        },
        "model": "training.profanity",
        "pk": 921
    },
    {
        "fields": {
            "created": "2015-08-21T13:33:00.257Z",
            "name": "rape"
        },
        "model": "training.profanity",
        "pk": 922
    },
    {
        "fields": {
            "created": "2015-08-25T08:01:24.588Z",
            "name": "duplicates"
        },
        "model": "training.profanity",
        "pk": 923
    },
    {
        "fields": {
            "created": "2015-08-26T09:19:00.417Z",
            "name": "sexist"
        },
        "model": "training.profanity",
        "pk": 924
    },
    {
        "fields": {
            "created": "2015-09-01T13:53:48.294Z",
            "name": "cannibals"
        },
        "model": "training.profanity",
        "pk": 925
    }
]